{
  "header": {
    "version": 4,
    "description": "Karaoke Mugen Karaoke Data File"
  },
  "medias": [
    {
      "version": "Default",
      "filename": "ADS - asdads - - hello world.mp3",
      "loudnorm": "-6.90,3.05,6.20,-17.06,-1.07",
      "filesize": 7121128,
      "duration": 174,
      "default": true,
      "lyrics": []
    }
  ],
  "data": {
    "created_at": "2024-04-16T10:57:24.429Z",
    "ignoreHooks": false,
    "kid": "08e5c9a7-86f7-457a-94bb-2e3cc71c98fd",
    "modified_at": "2024-04-16T10:57:24.604Z",
    "repository": "justin.omez.tech",
    "tags": {
      "authors": [
        "9b85d459-d747-44ec-9dfd-14e567429cbc"
      ],
      "collections": [
        "4667c57e-9ed5-4c74-ae45-46aef6fb4d4a"
      ],
      "langs": [
        "c63db084-f9c5-48d0-ae40-2306dd236e64"
      ],
      "series": [
        "dd031366-a7a9-408d-a075-966b31a78ef5"
      ],
      "songtypes": [
        "4667c57e-9ed5-4c74-ae45-46aef6fb4d4a",
        "6ab89f82-c5d6-4715-82aa-3c1fba5363ca"
      ]
    },
    "titles": {
      "eng": "hello world"
    },
    "titles_default_language": "eng",
    "year": 2024
  }
}