{
  "header": {
    "version": 4,
    "description": "Karaoke Mugen Karaoke Data File"
  },
  "medias": [
    {
      "version": "Default",
      "filename": "ARA - Digimon Tamers - OP - Digimon Tamers.mp4",
      "audiogain": 2.13,
      "loudnorm": "-21.04,-6.41,4.90,-31.12,-0.88",
      "filesize": 22061728,
      "duration": 91,
      "default": true,
      "lyrics": [
        {
          "filename": "ARA - Digimon Tamers - OP - Digimon Tamers.ass",
          "default": true,
          "version": "Default",
          "subchecksum": "d9ef900ed61acd3d425cc231a8b7f36d"
        }
      ]
    }
  ],
  "data": {
    "created_at": "2020-10-18T01:16:39.435Z",
    "kid": "a1327276-c2d0-4b88-bdb1-3ab720e88b9d",
    "modified_at": "2021-02-25T10:01:21.649Z",
    "parents": [
      "3d21e840-1faa-49c5-8976-ef7abfb8cc8b"
    ],
    "repository": "kara.moe",
    "tags": {
      "authors": [
        "a5dbab74-510b-48c5-9cea-5a537a81c974"
      ],
      "collections": [
        "c7db86a0-ff64-4044-9be4-66dd1ef1d1c1"
      ],
      "creators": [
        "f694bf43-b427-4244-9744-9d3f84fd8a31"
      ],
      "families": [
        "0377db02-3af6-43b8-9b08-c759df3d25c3"
      ],
      "genres": [
        "a0aeef4a-6428-45ff-a6e1-468b595930c2"
      ],
      "groups": [
        "3c14c864-533c-49e6-a3cc-6969f1233775",
        "8c22c899-b3ed-42da-a548-ce00f950798b"
      ],
      "langs": [
        "1b5e871e-bc48-412a-9da9-7a66ab86c31c"
      ],
      "origins": [
        "938de218-5343-4865-94d3-fb33f2eaa152"
      ],
      "series": [
        "0dae4170-d052-49f8-879c-ed62b7f8ea85"
      ],
      "singers": [
        "ba18e371-5cde-441b-a39c-c30bbded7422",
        "f06aacbf-2f1e-464f-bea5-4f45e04612b4"
      ],
      "songtypes": [
        "f02ad9b3-0bd9-4aad-85b3-9976739ba0e4"
      ],
      "franchises": [
        "315185f5-7fec-40da-ad58-8b0badb1c717"
      ]
    },
    "title": "Digimon Tamers",
    "titles": {
      "eng": "Digimon Tamers"
    },
    "year": 2001
  }
}