{
  "header": {
    "description": "Karaoke Mugen Tag File",
    "version": 1
  },
  "tag": {
    "i18n": {
      "eng": "asdasd"
    },
    "name": "asdasd",
    "repository": "justin.omez.tech",
    "tid": "3ed9e6a9-c8c8-4d60-9dcf-7a9e04744bf1",
    "types": [
      "6",
      "authors"
    ]
  }
}